{
  "articles": [
    {
      "id": 1,
      "title": "Title cat 4:1",
      "body": "TestBody1",
      "category": "4"
    },
    {
      "id": 2,
      "title": "Title cat 4:2",
      "body": "TestBody2",
      "category": "4"
    },
    {
      "id": 3,
      "title": "Title cat 4:3",
      "body": "TestBody3",
      "category": "4"
    },
    {
      "id": 4,
      "title": "Title cat 4:4",
      "body": "TestBody4",
      "category": "4"
    }
  ],
  "meta": {
    "current_page": 1,
    "next_page": 2,
    "prev_page": null,
    "total_pages": 2,
    "total_count": 5
  }
}